{
  "isWords": [
    "as", "as a", "as an", "like", "like a", "like an",
    "resemble", "resemble a", "resembling an",
    "resembling", "resembling a", "not unlike",
    "not unlike a", "not unlike an", "liek",
    "liek a", "liek an"
  ],
  "notWords": [
    "not as", "not as a", "not as an",
    "not like", "not like a", "not like an",
    "not resemble", "not resemble a", "not resembling an",
    "not resembling", "not resembling a", "unlike",
    "unlike a", "unlike an", "no liek",
    "not liek"
  ],
  "giraffes": [
    "animal", "animals", "beast", "beasts", "baby giraffe", "baby giraffes",
    "bull", "bulls", "calf", "calves", "cow", "cows",
    "young giraffe", "young giraffes", "corps of giraffes",
    "herd of giraffes", "journey of giraffes", "kaleidoscope of giraffes",
    "kindergarten of giraffes", "tower of giraffes", "troop of giraffes",
    "giraffe", "giraffes"
  ],
  "humans": [
    "hooman", "hoomans", "human", "humans", "human being", "human beings",
    "human child", "child", "human children", "children", "man", "men", 
    "woman", "women"
  ]
}
