{
  "names": [
    "a crocodile", "a mongoose", "a lion",
    "a warthog", "a zebra", "a wildebeast",
    "humans", "some wild dogs", "a cheetah",
    "a giraffe", "an elephant", "a hyena"
  ],
  "statuses": [
    "hungry", "just wanting to chill", "hunting",
    "wallowing", "on a pilgrimage", "passing through",
    "poaching", "caring for the dead", "laying an ambush",
    "looking for a mate", "digging for water", "setting up a lair"
  ],
  "comps": [
    ", suffering from a toothache.", " but there are snakes!", " but bored.",
    " and injured.", " while fleeing from someone or something.", 
    " and paranoid.",
    " and lost.", " but it was all a ruse!", ", having been blackmailed.",
    ", way too awkward.", " with a sick child at home.",
    " having been tricked."
  ]
}
