[
  {
    "name": "cliHelp",
    "text": "Usage: tag [--name|--play|--version]"
  },
  {
    "name": "cliName",
    "text": "Your new giraffe name is: ((name))"
  },
  {
    "name": "errCliUnknownCmd",
    "text": "Error: unknown command."
  },
  {
    "name": "gameIntro",
    "text": "You are a giraffe. You want the best leaves. They are so high up the tree. Your neck is too short and you cannot reach them. Sorrow! Hunger! Yearning! However, before you go figure out how to get the best leaves, let's settle a few things."
  },
  {
    "name": "cmdHelp",
    "text": "You can: look, go [place], do [something], show places, show version, quit"
  },
  {
    "name": "cmdQuit",
    "text": "See you soon!"
  },
  {
    "name": "cmdVersionAppDesc",
    "text": "text adventure giraffe game"
  },
  {
    "name": "cmdLookPlaceName",
    "text": "You are at the ((placeName))."
  },
  {
    "name": "cmdLookPlaceDesc",
    "text": "((placeDesc))"
  },
  {
    "name": "cmdLookEnt",
    "text": "You see ((entity))"
  },
  {
    "name": "cmdPlaces",
    "text": "Places: ((places))"
  },
  {
    "name": "cmdDoLikeGiraffe",
    "text": "You ((action)), channelling your inner giraffe."
  },
  {
    "name": "cmdDoLikeHuman",
    "text": "You ((action)), channelling your inner human."
  },
  {
    "name": "cmdDoExcSuccess",
    "text": "It was an exceptional success! +1 GIRAFFE!"
  },
  {
    "name": "cmdDoSuccess",
    "text": "It was a success!"
  },
  {
    "name": "cmdDoExcFailure",
    "text": "It was an exceptional failure. -1 GIRAFFE!"
  },
  {
    "name": "cmdDoFailure",
    "text": "It was a failure."
  },
  {
    "name": "cmdDoGiraffe",
    "text": "It was … GIRAFFE?!! You have a profound epiphany. A moment of insight into the ways of the universe. You learn one secret you wouldn’t ordinarily be able to know. What is it, you ask? I don't know! Weren't you the one who had an epiphany?"
  },
  {
    "name": "cmdOtherAction",
    "text": "Nope. Nothing happens."
  },
  {
    "name": "cmdUnknown",
    "text": "*mumble*"
  },
  {
    "name": "promptName",
    "text": "What's your name? (e.g. ((name)))"
  },
  {
    "name": "promptAdj",
    "text": "If you were to describe yourself in one word, what would it be? (e.g. ((adj)))"
  },
  {
    "name": "confCharaInfo",
    "text": "Your name is ((name)) and you're ((adj)) — is that right? (y/n)"
  },
  {
    "name": "confCharaCreate",
    "text": "Got it! Time to do stuff!"
  },
  {
    "name": "attrGiraffe",
    "text": "GIRAFFE: ((giraffe))"
  },
  {
    "name": "endGiraffe",
    "text": "You evolve into the platonic ideal of a giraffe. Your neck is so long. You can easily reach all the best leaves."
  },
  {
    "name": "endHuman",
    "text": "You devolve into a miserable human. You never get the best leaves. Instead you have to go get a job and work for the rest of your life."
  },
  {
    "name": "errCmdGoNoPlace",
    "text": "You need to name a place to go there."
  },
  {
    "name": "errCmdGoSamePlace",
    "text": "You're already here!"
  },
  {
    "name": "errCmdGoPlaceNotFound",
    "text": "You look everywhere, but could not find '((placeName))'."
  },
  {
    "name": "errCmdDoNoAction",
    "text": "You need to say what you want to do."
  },
  {
    "name": "errCmdDoNoCreature",
    "text": "You try to ((action)), but the other creature(s) have disappeared."
  },
  {
    "name": "errCmdDoNoEnc",
    "text": "You ((action)), but there's no one here."
  }
]
